Mark Barrett - Parsing XML with R
…
{xml_node}
<recorded-vote>
[1] <legislator name-id="A000370" sort-field="Adams" unaccented-name="Adams"  ...
[2] <vote>Yea</vote>

With a similar combination of as_list() , flatten_dfr(), and unnest() we can flatten the XML into one row per legislator

Code
(vote_roll_flattened = vote_data %>% 
  as_list() %>% 
  flatten_dfr() %>% 
    unnest(everything()))

# A tibble: 430 × 2
   legislator  vote 
   <chr>       <chr>
 1 Adams       Yea  
 2 Aderholt    Nay  
 3 Aguilar     Yea  
 4 Allen       Nay  
 5 Allred      Yea  
 6 Amodei      Yea  
 7 Armstrong   Yea  
 8 Arrington   Nay  
 9 Auchincloss Yea  
10 Axne        Yea  
# … with 420 more rows
…
The legislator element has all the attributes, while the vote element only has a value. We want to extract the attributes only for legislator using map() to apply map_at() on each legislator element and extract the attributes from each while retaining the value in vote. It can often feel like you’re getting lost in a list of lists, but with some experimentation you’ll be able to find your way back to the surface.

Code
(legislator_vote_df = legislators_list %>% 
    # Modify one level deeper using map_at to target legislator elements
    map(map_at, "legislator", attributes) %>% 
    map_dfr(flatten_dfc))

# A tibble: 430 × 7
   `name-id` `sort-field` `unaccented-name` party state role       vote 
   <chr>     <chr>        <chr>             <chr> <chr> <chr>      <chr>
 1 A000370   Adams        Adams             D     NC    legislator Yea  
 2 A000055   Aderholt     Aderholt          R     AL    legislator Nay  
 3 A000371   Aguilar      Aguilar           D     CA    legislator Yea  
 4 A000372   Allen        Allen             R     GA    legislator Nay  
 5 A000376   Allred       Allred            D     TX    legislator Yea  
 6 A000369   Amodei       Amodei            R     NV    legislator Yea  
 7 A000377   Armstrong    Armstrong         R     ND    legislator Yea  
 8 A000375   Arrington    Arrington         R     TX    legislator Nay  
 9 A000148   Auchincloss  Auchincloss       D     MA    legislator Yea  
10 A000378   Axne         Axne              D     IA    legislator Yea  
# … with 420 more rows
…
